^C:\USERS\31304\DESKTOP\C++\STORECPLUSPLUS\DANHSACHLIENKET\DANHSACHLIENKET\MAIN.CPP
C:\USERS\31304\DESKTOP\C++\STORECPLUSPLUS\DANHSACHLIENKET\DANHSACHLIENKET\DEBUG\VC110.PDB
C:\USERS\31304\DESKTOP\C++\STORECPLUSPLUS\DANHSACHLIENKET\DANHSACHLIENKET\DEBUG\MAIN.OBJ
